InClass04_join_twdemo_referendum
…
raw_single <- raw %>%
    select(statistic_yyy, vname, district_code, site_id, village, matches("age"))

raw_single_long <- 
    raw_single %>%
    gather(key = "key", value = "n", -c(statistic_yyy, vname, district_code, site_id, village))

raw_single_long %>%
    separate(col = "key", into = c("married", "ageLower", "ageUpper", "gender"), sep = "_")

## Warning: Expected 4 pieces. Additional pieces discarded in 263840 rows
## [7761, 7762, 7763, 7764, 7765, 7766, 7767, 7768, 7769, 7770, 7771, 7772,
## 7773, 7774, 7775, 7776, 7777, 7778, 7779, 7780, ...].

## # A tibble: 294,880 x 10
##    statistic_yyy vname district_code site_id village married ageLower
##    <chr>         <chr> <chr>         <chr>   <chr>   <chr>   <chr>   
##  1 107            65000010001      single  age     
##  2 107            65000010002      single  age     
##  3 107            65000010003      single  age     
##  4 107            65000010004      single  age     
##  5 107            65000010005      single  age     
##  6 107            65000010006      single  age     
##  7 107            65000010007      single  age     
##  8 107            65000010008      single  age     
##  9 107            65000010009      single  age     
## 10 107            65000010010      single  age     
## #  with 294,870 more rows, and 3 more variables: ageUpper <chr>,
## #   gender <chr>, n <chr>
…
raw_single_long %>%
    count(key)

## # A tibble: 38 x 2
##    key                     n
##    <chr>               <int>
##  1 single_age_100up_f   7760
##  2 single_age_100up_m   7760
##  3 single_age_15_19_f   7760
##  4 single_age_15_19_m   7760
##  5 single_age_15down_f  7760
##  6 single_age_15down_m  7760
##  7 single_age_20_24_f   7760
##  8 single_age_20_24_m   7760
##  9 single_age_25_29_f   7760
## 10 single_age_25_29_m   7760
## #  with 28 more rows

raw_single_long %>%
    mutate(description = str_replace(key, "15down", "0_14")) %>%
    mutate(description = str_replace(key, "100up", "100_105")) %>%
    separate(col = "key", into = c("married", "age", "ageLower", "ageUpper", "gender"), sep = "_")

## Warning: Expected 5 pieces. Missing pieces filled with `NA` in 31040
## rows [1, 2, 3, 4, 5, 6, 7, 8, 9, 10, 11, 12, 13, 14, 15, 16, 17, 18, 19,
## 20, ...].

## # A tibble: 294,880 x 12
##    statistic_yyy vname district_code site_id village married age   ageLower
##    <chr>         <chr> <chr>         <chr>   <chr>   <chr>   <chr> <chr>   
##  1 107            65000010001      single  age   15down  
##  2 107            65000010002      single  age   15down  
##  3 107            65000010003      single  age   15down  
##  4 107            65000010004      single  age   15down  
##  5 107            65000010005      single  age   15down  
##  6 107            65000010006      single  age   15down  
##  7 107            65000010007      single  age   15down  
##  8 107            65000010008      single  age   15down  
##  9 107            65000010009      single  age   15down  
## 10 107            65000010010      single  age   15down  
## #  with 294,870 more rows, and 4 more variables: ageUpper <chr>,
## #   gender <chr>, n <chr>, description <chr>
…
4 Summarizing by villages

tidy_data %>%
    filter(str_detect(vname, "") & str_detect(vname, ""))

## # A tibble: 8,056 x 10
##    statistic_yyy vname district_code site_id village married ageLower
##    <chr>         <chr> <chr>         <chr>   <chr>   <chr>      <dbl>
##  1 107            63000030005      single         0
##  2 107            63000030005      single        15
##  3 107            63000030005      single        20
##  4 107            63000030005      single        25
##  5 107            63000030005      single        30
##  6 107            63000030005      single        35
##  7 107            63000030005      single        40
##  8 107            63000030005      single        45
##  9 107            63000030005      single        50
## 10 107            63000030005      single        55
## #  with 8,046 more rows, and 3 more variables: ageUpper <dbl>,
## #   gender <chr>, value <dbl>
…
